Soluciones Parte 2
…
tokens_trips %>%
  group_by(word) %>%
  summarize(token_freq = n()) %>%
  group_by(token_freq) %>% 
  summarise(count = n()) %>%
  mutate(prop = count/sum(count))

## # A tibble: 248 x 3
##    token_freq count   prop
##         <int> <int>  <dbl>
##  1          1  4930 0.493 
##  2          2  1306 0.131 
##  3          3   664 0.0665
##  4          4   452 0.0452
##  5          5   320 0.0320
##  6          6   247 0.0247
##  7          7   203 0.0203
##  8          8   157 0.0157
##  9          9   120 0.0120
## 10         10   104 0.0104
## #  with 238 more rows
…
Componentes principales: hay 4 componentes principales y originalmente tenamos 4 variables.

juice(Arrests_pca)

## # A tibble: 50 x 5
##    State           PC1     PC2     PC3      PC4
##    <fct>         <dbl>   <dbl>   <dbl>    <dbl>
##  1 Alabama     -0.976   1.12   -0.440   0.155  
##  2 Alaska      -1.93    1.06    2.02   -0.434  
##  3 Arizona     -1.75   -0.738   0.0542 -0.826  
##  4 Arkansas     0.140   1.11    0.113  -0.181  
##  5 California  -2.50   -1.53    0.593  -0.339  
##  6 Colorado    -1.50   -0.978   1.08    0.00145
##  7 Connecticut  1.34   -1.08   -0.637  -0.117  
##  8 Delaware    -0.0472 -0.322  -0.711  -0.873  
##  9 Florida     -2.98    0.0388 -0.571  -0.0953 
## 10 Georgia     -1.62    1.27   -0.339   1.07   
## #  with 40 more rows
…
