Redución de dimensiones
…
Cada fila representa un ingrediente asociado a una bebida en específico.

cocktails %>%
  count(ingredient, sort = TRUE)

## # A tibble: 569 x 2
##    ingredient            n
##    <chr>             <int>
##  1 Gin                 176
##  2 Fresh lemon juice   138
##  3 Simple Syrup        115
##  4 Vodka               114
##  5 Light Rum           113
##  6 Dry Vermouth        107
##  7 Fresh Lime Juice    107
##  8 Triple Sec          107
##  9 Powdered Sugar       90
## 10 Grenadine            85
## # … with 559 more rows

cocktails %>% 
  group_by(measure) %>% 
  count(measure,sort = TRUE)

## # A tibble: 42 x 2
## # Groups:   measure [42]
##    measure       n
##    <chr>     <int>
##  1 1 oz       1102
##  2 1/2 oz      776
##  3 1 1/2 oz    494
##  4 2 oz        426
##  5 3/4 oz      416
##  6 1/4 oz      214
##  7 3 oz         67
##  8 4 oz         23
##  9 1 1/4 oz     21
## 10 For glass    19
## # … with 32 more rows
…
cocktails_limpios <- cocktails %>%
  mutate(ingredient = limpiar_bebidas(ingredient),
         measure = limpiar_medidas(measure),
         measure_num = parse_number(measure)) %>%
  add_count(ingredient) %>%
  filter(n > 15) %>%
  select(-n) %>%
  distinct(row_id, ingredient, .keep_all = TRUE) %>%
  na.omit()

cocktails_limpios

## # A tibble: 2,543 x 7
##    name       category   row_id ingredient_numb… ingredient  measure measure_num
##    <chr>      <chr>       <dbl>            <dbl> <chr>       <chr>         <dbl>
##  1 Gauguin    Cocktail …      1                1 light rum   2 oz           2   
##  2 Gauguin    Cocktail …      1                3 lemon juice 1 oz           1   
##  3 Gauguin    Cocktail …      1                4 lime juice  1 oz           1   
##  4 Fort Laud… Cocktail …      2                1 light rum   1.5 oz         1.5 
##  5 Fort Laud… Cocktail …      2                2 sweet verm… .5 oz          0.5 
##  6 Fort Laud… Cocktail …      2                3 orange jui… .25 oz         0.25
##  7 Fort Laud… Cocktail …      2                4 lime juice  .25 oz         0.25
##  8 Cuban Coc… Cocktail …      4                1 lime juice  .5 oz          0.5 
##  9 Cuban Coc… Cocktail …      4                2 powdered s… .5 oz          0.5 
## 10 Cuban Coc… Cocktail …      4                3 light rum   2 oz           2   
## # … with 2,533 more rows

Para llevar a cabo el análisis de componenetes principales necesitamos que cada uno de los ingredientes sea una columna.

cocktails_wide <- cocktails_limpios %>%
  select(name, category,ingredient,measure_num) %>%
  pivot_wider(names_from = ingredient, values_from = measure_num, values_fill = 0) %>%
  janitor::clean_names() %>%
  na.omit()
cocktails_wide 

## # A tibble: 937 x 42
##    name    category light_rum lemon_juice lime_juice sweet_vermouth orange_juice
##    <chr>   <chr>        <dbl>       <dbl>      <dbl>          <dbl>        <dbl>
##  1 Gauguin Cocktai…      2           1          1               0           0   
##  2 Fort L… Cocktai…      1.5         0          0.25            0.5         0.25
##  3 Cuban … Cocktai…      2           0          0.5             0           0   
##  4 Cool C… Cocktai…      0           0          0               0           1   
##  5 John C… Whiskies      0           1          0               0           0   
##  6 Cherry… Cocktai…      1.25        0          0               0           0   
##  7 Casa B… Cocktai…      2           0          1.5             0           0   
##  8 Caribb… Cocktai…      0.5         0          0               0           0   
##  9 Amber … Cordial…      0           0.25       0               0           0   
## 10 The Jo… Whiskies      0           0.5        0               0           0   
## # … with 927 more rows, and 35 more variables: powdered_sugar <dbl>,
## #   dark_rum <dbl>, cranberry_juice <dbl>, pineapple_juice <dbl>,
## #   bourbon_whiskey <dbl>, simple_syrup <dbl>, cherry_flavored_brandy <dbl>,
## #   light_cream <dbl>, triple_sec <dbl>, maraschino <dbl>, amaretto <dbl>,
## #   grenadine <dbl>, apple_brandy <dbl>, brandy <dbl>, gin <dbl>,
## #   anisette <dbl>, dry_vermouth <dbl>, apricot_flavored_brandy <dbl>,
## #   bitters <dbl>, straight_rye_whiskey <dbl>, benedictine <dbl>,
## #   egg_white <dbl>, half_and_half <dbl>, vodka <dbl>, grapefruit_juice <dbl>,
## #   blended_scotch_whiskey <dbl>, port <dbl>, white_creme_de_cacao <dbl>,
…
Explorar los resultados

juice va a extraer en un data frame los datos obtenidos de nuestro modelo. En este caso vamos a tener una matriz con cada una de las observaciones y los componentes principales asociados a ellas.

juice(drinks_pca)

## # A tibble: 937 x 7
##    name               category                PC1     PC2     PC3     PC4    PC5
##    <fct>              <fct>                 <dbl>   <dbl>   <dbl>   <dbl>  <dbl>
##  1 Gauguin            Cocktail Classics    1.23   -1.40    0.218  -1.71    1.55 
##  2 Fort Lauderdale    Cocktail Classics    0.677   0.350   0.0691 -0.199   1.43 
##  3 Cuban Cocktail No… Cocktail Classics    0.171  -1.05   -0.276  -0.959   2.04 
##  4 Cool Carlos        Cocktail Classics    2.11   -1.09    0.195   2.46    1.54 
##  5 John Collins       Whiskies             1.22   -0.982  -0.740  -1.16   -2.17 
##  6 Cherry Rum         Cocktail Classics   -0.877  -0.680   0.767  -0.600  -0.731
##  7 Casa Blanca        Cocktail Classics    1.44   -0.624   0.462  -4.56    4.05 
##  8 Caribbean Champag… Cocktail Classics    0.297   0.0167 -0.0468  0.0242  0.322
##  9 Amber Amour        Cordials and Lique…  1.20   -0.590  -0.322   1.71   -1.19 
## 10 The Joe Lewis      Whiskies             0.0993 -0.129  -0.0339 -0.0387 -0.515
## # … with 927 more rows
…
