Topic Modeling
…
words_remove <- c("e","will","amp","c","d","f","b")
tokens_tweets <- tokens_tweets  %>%
  filter(!word %in% words_remove)

Vamos a revisar la distribucin de frecuencia de las palabras

tokens_tweets %>% 
  group_by(word) %>% 
  summarize(token_freq=n()) %>% 
  group_by(token_freq) %>%
  summarise(count = n()) %>%
  mutate(prop = count/sum(count))

## # A tibble: 293 x 3
##    token_freq count   prop
##         <int> <int>  <dbl>
##  1          1  7511 0.475 
##  2          2  2021 0.128 
##  3          3  1097 0.0694
##  4          4   696 0.0440
##  5          5   529 0.0335
##  6          6   395 0.0250
##  7          7   332 0.0210
##  8          8   254 0.0161
##  9          9   217 0.0137
## 10         10   187 0.0118
## #  with 283 more rows
…
